Lab 4
…
Our analysis says that February (the second month) had the highest avocado sales of any month.

Question 5

avocados_metropolitan |> 
  filter(region != "TotalUS") |> 
  group_by(region) |> 
  summarise(total_volume = sum(`Total Volume`), .groups = "keep") |> 
  arrange(desc(total_volume))

# A tibble: 41 × 2
# Groups:   region [41]
   region              total_volume
   <chr>                      <dbl>
 1 LosAngeles            507896548.
 2 DallasFtWorth         208419287.
 3 Houston               203167868.
 4 PhoenixTucson         195643312.
 5 Denver                138902536.
 6 SanFrancisco          135830192.
 7 BaltimoreWashington   134713919.
 8 Chicago               133702339.
 9 Portland              110552212.
10 Seattle               109214178.
# … with 31 more rows
…
